{
  "collectionName": "components_sections_featureds",
  "info": {
    "displayName": "Featured",
    "icon": "shirt",
    "description": ""
  },
  "options": {},
  "attributes": {
    "products": {
      "type": "component",
      "repeatable": true,
      "component": "elements.featured-product",
      "required": true,
      "min": 2
    },
    "title": {
      "type": "string"
    }
  }
}
