{
  "collectionName": "components_sections_lookbook_3s",
  "info": {
    "displayName": "Lookbook_3",
    "icon": "picture"
  },
  "options": {},
  "attributes": {
    "image_1": {
      "allowedTypes": [
        "images"
      ],
      "type": "media",
      "multiple": false,
      "required": true
    },
    "image_2": {
      "allowedTypes": [
        "images"
      ],
      "type": "media",
      "multiple": false,
      "required": true
    },
    "image_3": {
      "allowedTypes": [
        "images"
      ],
      "type": "media",
      "multiple": false,
      "required": true
    },
    "image_4": {
      "allowedTypes": [
        "images"
      ],
      "type": "media",
      "multiple": false,
      "required": true
    },
    "image_5": {
      "allowedTypes": [
        "images"
      ],
      "type": "media",
      "multiple": false,
      "required": true
    },
    "title": {
      "type": "string",
      "required": true
    },
    "description": {
      "type": "text",
      "required": true
    },
    "link": {
      "type": "component",
      "repeatable": false,
      "component": "elements.link",
      "required": false
    }
  }
}
