{
  "collectionName": "components_sections_products_selected_list",
  "info": {
    "displayName": "Products selected list",
    "description": ""
  },
  "options": {},
  "attributes": {
    "products": {
      "type": "relation",
      "relation": "oneToMany",
      "target": "api::product.product"
    },
    "show_description": {
      "type": "boolean",
      "default": false,
      "required": true
    }
  }
}
